{"_id":"eucaim-fl-ml-server","name":"eucaim-fl-ml-server","author":"Your Name","version":"1.0","permissions":"public","visibility":"public","launcher":["docker"],"image":{"label":"registry.gitlab.bsc.es/fl/eucaim-fl-ml-server","hash":"image_hash_value","url":"registry.gitlab.bsc.es/fl/eucaim-fl-ml-server:latest","cmd":"python3 server.py"},"type":["docker"],"port_mappings":{"container_port":4433,"host_port":4433},"var_envs":{"FLOWER_CENTRAL_SERVER_IP":"0.0.0.0","FLOWER_CENTRAL_SERVER_PORT":"4433","FLOWER_SSL_CACERT":"$FLOWER_SSL_CACERT"},"volumes":[{"container_path":"/flcore","host_path":"$SANDBOX_PATH/eucaim-fl-ml-server"},{"host_path":"$FLOWER_SSL_CACERT","container_path":"$FLOWER_SSL_CACERT"}],"cpus":"","memory":"","gpus":"","inputs":"","arguments":"","outputs":{"model_dir":"","move_to":""},"persistent":false,"pre_checks":true,"source_code":{"url":"https://gitlab.bsc.es/fl/eucaim-fl-ml-server.git"}}
{"_id":"eucaim-fl-ml-client","name":"eucaim-fl-ml-client","author":"Your Name","version":"1.0","permissions":"public","visibility":"public","launcher":["docker"],"image":{"label":"registry.gitlab.bsc.es/fl/eucaim-fl-ml-client","hash":"image_hash_value","url":"registry.gitlab.bsc.es/fl/eucaim-fl-ml-client:latest","cmd":"python3 client.py 1"},"type":["docker"],"var_envs":{"DATA_PATH":"$DATA_PATH","QUICK_RUN":"True","FLOWER_CENTRAL_SERVER_IP":"flower.fl.bsc.es","FLOWER_CENTRAL_SERVER_PORT":"4433","FLOWER_SSL_CACERT":"$FLOWER_SSL_CACERT"},"volumes":[{"container_path":"/flcore","host_path":"$SANDBOX_PATH/eucaim-fl-ml-client"},{"container_path":"$DATA_PATH:ro","host_path":"$DATA_PATH"},{"host_path":"$FLOWER_SSL_CACERT","container_path":"$FLOWER_SSL_CACERT"}],"cpus":"","memory":"12GB","gpus":"","inputs":"","arguments":"","outputs":{"model_dir":"","move_to":""},"persistent":false,"pre_checks":false,"source_code":{"url":"https://gitlab.bsc.es/fl/eucaim-fl-ml-client.git"}}
{"_id":"health-check","name":"Health Check Task","author":"Your Name","version":"1.0","permissions":"public","visibility":"public","launcher":["docker"],"type":["docker"],"pre_checks":true}
{"_id":"eucaim-fl-dl-server","name":"eucaim-fl-dl-server","author":"Your Name","version":"1.0","permissions":"public","visibility":"public","launcher":["docker"],"image":{"label":"registry.gitlab.bsc.es/fl/eucaim-fl-dl-server","hash":"image_hash_value","url":"registry.gitlab.bsc.es/fl/eucaim-fl-dl-server:latest","cmd":"python3 server.py"},"type":["docker"],"port_mappings":{"container_port":4433,"host_port":4433},"var_envs":{"FLOWER_CENTRAL_SERVER_IP":"0.0.0.0","FLOWER_CENTRAL_SERVER_PORT":"4433","FLOWER_SSL_CACERT":"$FLOWER_SSL_CACERT"},"volumes":[{"container_path":"/flcore","host_path":"$SANDBOX_PATH/eucaim-fl-dl-server"},{"host_path":"$FLOWER_SSL_CACERT","container_path":"$FLOWER_SSL_CACERT"}],"cpus":"","memory":"","gpus":"","inputs":"","arguments":"","outputs":{"model_dir":"","move_to":""},"persistent":false,"pre_checks":true,"source_code":{"url":"https://gitlab.bsc.es/fl/eucaim-fl-dl-server.git"}}
{"_id":"eucaim-fl-dl-client","name":"eucaim-fl-dl-client","author":"Your Name","version":"1.0","permissions":"public","visibility":"public","launcher":["docker"],"image":{"label":"registry.gitlab.bsc.es/fl/eucaim-fl-dl-client","hash":"image_hash_value","url":"registry.gitlab.bsc.es/fl/eucaim-fl-dl-client:latest","cmd":"python3 client.py 1"},"type":["docker"],"var_envs":{"DATA_PATH":"$DATA_PATH","QUICK_RUN":"True","FLOWER_CENTRAL_SERVER_IP":"flower.fl.bsc.es","FLOWER_CENTRAL_SERVER_PORT":"4433","FLOWER_SSL_CACERT":"$FLOWER_SSL_CACERT"},"volumes":[{"container_path":"/flcore","host_path":"$SANDBOX_PATH/eucaim-fl-dl-client"},{"container_path":"$DATA_PATH:ro","host_path":"$DATA_PATH"},{"host_path":"$FLOWER_SSL_CACERT","container_path":"$FLOWER_SSL_CACERT"}],"cpus":"","memory":"12GB","gpus":"","inputs":"","arguments":"","outputs":{"model_dir":"","move_to":""},"persistent":false,"pre_checks":false,"source_code":{"url":"https://gitlab.bsc.es/fl/eucaim-fl-dl-client.git"}}
{"_id":"data-materializer-dt4h","name":"data-materializer-dt4h","author":"Your Name","version":"1.0","permissions":"public","visibility":"public","launcher":["docker"],"image":{"label":"registry.gitlab.bsc.es/fl/data-materializer-dt4h","hash":"image_hash_value","url":"registry.gitlab.bsc.es/fl/data-materializer-dt4h:latest","cmd":"python materializer.py"},"type":["docker"],"var_envs":{"API_ENDPOINT":"https://your-materialization-api.com/materialize","FILE_ENDPOINT":"https://your-file-api.com/getfile"},"volumes":[{"container_path":"/app/output","host_path":"$SANDBOX_PATH/data-materializer-output"}],"cpus":"","memory":"","gpus":"","inputs":"","arguments":"","outputs":{"materialized_data":"/app/output/materialized_data.txt","metadata":"/app/output/metadata.txt"},"persistent":false,"pre_checks":false,"source_code":{"url":"https://your-materializer-repo.com.git"}}
{"_id":"get_dt4h_summary","name":"DT4H summary materializer","author":"Your Name","version":"1.0","permissions":"public","visibility":"public","launcher":["docker"],"image":{"label":"registry.gitlab.bsc.es/fl/dt4h_summary_materializer","hash":"image_hash_value","url":"registry.gitlab.bsc.es/fl/dt4h_summary_materializer:latest","cmd":" "},"type":["docker"],"var_envs":{"FILE_ID":"your_file_id","USER_ID":"your_user_id","USERNAME":"your_username","PASSWORD":"your_password","EXECUTION_DIR":"$EXECUTION_DIR","NODE_NAME":"$NODE_NAME","GET_URL_SRDC":"https://matrix.srdc.com.tr/dt4h/feast/api/Dataset?url=https://datatools4heart.eu/feature-sets/study1_features_new","GET_URL_UB":"http://161.116.84.46:6087/onfhir-feast/api/Dataset/59b78d1c-3f4b-4d7a-a830-b901334dd53a"},"volumes":[{"container_path":"$EXECUTION_DIR","host_path":"$EXECUTION_DIR"}],"cpus":"","memory":"","gpus":"","inputs":"","arguments":"","outputs":{"materialized file":"data.txt"},"persistent":false,"pre_checks":false,"source_code":{"url":"https://gitlab.bsc.es/fl/dt4h_summary_materializer"}}
{"_id":"flcore-server","name":"flcore server","author":"Your Name","version":"1.0","permissions":"public","visibility":"public","launcher":["docker"],"image":{"label":"registry.gitlab.bsc.es/fl/flcore","hash":"image_hash_value","url":"registry.gitlab.bsc.es/fl/flcore:latest","cmd":"python3 server.py"},"type":["docker"],"port_mappings":{"container_port":4433,"host_port":4433},"var_envs":{"FLOWER_CENTRAL_SERVER_IP":"0.0.0.0","FLOWER_CENTRAL_SERVER_PORT":"4433","FLOWER_SSL_CACERT":"$FLOWER_SSL_CACERT"},"volumes":[{"container_path":"/flcore","host_path":"$SANDBOX_PATH/flcore"},{"host_path":"$FLOWER_SSL_CACERT","container_path":"$FLOWER_SSL_CACERT"}],"cpus":"","memory":"","gpus":"","inputs":"","arguments":"","outputs":{"model_dir":"","move_to":""},"persistent":false,"pre_checks":true,"source_code":{"url":"https://gitlab.bsc.es/fl/flcore.git"}}
{"_id":"flcore-client","name":"flcore-client","author":"Your Name","version":"1.0","permissions":"public","visibility":"public","launcher":["docker"],"image":{"label":"registry.gitlab.bsc.es/fl/flcore","hash":"image_hash_value","url":"registry.gitlab.bsc.es/fl/flcore:latest","cmd":"python3 client.py $(shuf -i 1-4 -n 1)"},"type":["docker"],"var_envs":{"DATA_PATH":"$DATA_PATH","QUICK_RUN":"True","FLOWER_CENTRAL_SERVER_IP":"flower.fl.bsc.es","FLOWER_CENTRAL_SERVER_PORT":"4433","FLOWER_SSL_CACERT":"$FLOWER_SSL_CACERT"},"volumes":[{"container_path":"/flcore","host_path":"$SANDBOX_PATH/flcore"},{"container_path":"$DATA_PATH:ro","host_path":"$DATA_PATH"},{"host_path":"$FLOWER_SSL_CACERT","container_path":"$FLOWER_SSL_CACERT"}],"cpus":"","memory":"12GB","gpus":"","inputs":"","arguments":"","outputs":{"model_dir":"","move_to":""},"persistent":false,"pre_checks":false,"source_code":{"url":"https://gitlab.bsc.es/fl/flcore.git"}}
{"_id":"manage-docker","name":"manage-docker","author":"UB","version":"1.0","permissions":"public","visibility":"public","launcher":["docker"],"image":{"label":"registry.gitlab.bsc.es/fl/manage-docker:latest","hash":"image_hash_value","url":"registry.gitlab.bsc.es/fl/manage-docker:latest","cmd":"/usr/local/bin/stop_container.sh"},"type":["docker"],"port_mappings":{},"var_envs":{},"volumes":[{"host_path":"/var/run/docker.sock","container_path":"/var/run/docker.sock"}],"cpus":"","memory":"","gpus":"","inputs":"","arguments":"<container_id>","outputs":{"model_dir":"","move_to":""},"persistent":false,"pre_checks":false,"source_code":{"url":"https://gitlab.bsc.es/fl/manage-docker"}}
{"_id":"eucaim-fl-fedbiomed-vpn-server","name":"eucaim-fl-fedbiomed-vpn-server","author":"Fed-BioMed@INRIA","version":"1.0","permissions":"public","visibility":"public","launcher":["docker"],"image":{"label":"registry.gitlab.bsc.es/eucaim/docker-registry/fedbiomed-vpn-server","hash":"1fe92c867477d83b1a97f52d27e439a7fa1c2954abe16639400c4a5d77902b09","url":"registry.gitlab.bsc.es/eucaim/docker-registry/fedbiomed-vpn-server:dev-001","cmd":""},"type":["docker"],"port_mappings":{"container_port":"51820/udp","host_port":51820},"var_envs":{"FL_HOST_NAME":"$NODE_NAME"},"volumes":[{"container_path":"/config","host_path":"$SANDBOX_PATH/EUCAIM_Fedbiomed_demo/demo-M18/run_mounts/vpnserver/config"}],"persistent":false,"pre_checks":true,"device":"/dev/net/tun","cap_add":["NET_ADMIN","SYS_MODULE"]}
{"_id":"eucaim-fl-fedbiomed-vpn-researcher","name":"eucaim-fl-fedbiomed-vpn-researcher","author":"Fed-BioMed@INRIA","version":"1.0","permissions":"public","visibility":"public","launcher":["docker"],"image":{"label":"registry.gitlab.bsc.es/eucaim/docker-registry/fedbiomed-vpn-researcher","hash":"2d6120d72b74719696bdd401d5759d9c7c9802e307d5468e145f3f55e83530ae","url":"registry.gitlab.bsc.es/eucaim/docker-registry/fedbiomed-vpn-researcher:dev-001","cmd":""},"type":["docker"],"port_mappings":[{"container_port":8888,"host_port":8888},{"container_port":6007,"host_port":6006},{"container_port":14000,"host_port":14000}],"volumes":[{"container_path":"/config","host_path":"$SANDBOX_PATH/EUCAIM_Fedbiomed_demo/demo-M18/run_mounts/researcher/config"},{"container_path":"/data","host_path":"$DATA_PATH"},{"container_path":"/fedbiomed/etc","host_path":"$SANDBOX_PATH/EUCAIM_Fedbiomed_demo/demo-M18/run_mounts/researcher/etc"},{"container_path":"/fedbiomed/notebooks/samples","host_path":"$SANDBOX_PATH/EUCAIM_Fedbiomed_demo/demo-M18/run_mounts/researcher/samples"},{"container_path":"/fedbiomed/runs","host_path":"$SANDBOX_PATH/EUCAIM_Fedbiomed_demo/demo-M18/run_mounts/researcher/runs"},{"container_path":"/fedbiomed/var","host_path":"$SANDBOX_PATH/EUCAIM_Fedbiomed_demo/demo-M18/run_mounts/researcher/var"}],"persistent":false,"pre_checks":true,"device":"/dev/net/tun","cap_add":["NET_ADMIN","SYS_MODULE"],"var_envs":{"FL_HOST_NAME":"$NODE_NAME"}}
{"_id":"eucaim-fl-fedbiomed-vpn-config","name":"eucaim-fl-fedbiomed-vpn-config","author":"Fed-BioMed@INRIA","version":"1.0","permissions":"public","visibility":"public","launcher":["generic"],"type":["generic"],"persistent":false,"pre_checks":true,"source_code":{"url":"https://github.com/sharkovsky/EUCAIM_Fedbiomed_demo.git","commit_hash":"3697436b54c259b043db923a6d043325ba2bf3b4"}}
{"_id":"eucaim-fl-fedbiomed-vpn-node","name":"eucaim-fl-fedbiomed-vpn-node","author":"Fed-BioMed@INRIA","version":"1.0","permissions":"public","visibility":"public","launcher":["docker"],"image":{"label":"registry.gitlab.bsc.es/eucaim/docker-registry/fedbiomed-vpn-node","hash":"","url":"registry.gitlab.bsc.es/eucaim/docker-registry/fedbiomed-vpn-node:dev-001","cmd":""},"type":["docker"],"port_mappings":[],"volumes":[{"container_path":"/config","host_path":"$SANDBOX_PATH/EUCAIM_Fedbiomed_demo/demo-M18/run_mounts/node_${NODE_NAME}/config"},{"container_path":"/data","host_path":"$DATA_PATH"},{"container_path":"/fedbiomed/etc","host_path":"$SANDBOX_PATH/EUCAIM_Fedbiomed_demo/demo-M18/run_mounts/node_${NODE_NAME}/etc"},{"container_path":"/fedbiomed/var","host_path":"$SANDBOX_PATH/EUCAIM_Fedbiomed_demo/demo-M18/run_mounts/node_${NODE_NAME}/var"}],"persistent":false,"pre_checks":true,"device":"/dev/net/tun","cap_add":["NET_ADMIN","SYS_MODULE"]}
